^C:\PROJECT\TESTING\TESTING\TESTING.QRC
C:\PROJECT\TESTING\TESTING\GENERATEDFILES\QRC_TESTING.CPP
^C:\PROJECT\TESTING\TESTING\TESTING.UI
C:\PROJECT\TESTING\TESTING\GENERATEDFILES\UI_TESTING.H
^C:\PROJECT\TESTING\TESTING\TESTING.H
C:\PROJECT\TESTING\TESTING\GENERATEDFILES\DEBUG\MOC_TESTING.CPP
^C:\PROJECT\TESTING\TESTING\TIMELINE.H
C:\PROJECT\TESTING\TESTING\GENERATEDFILES\DEBUG\MOC_TIMELINE.CPP
